<?xml version="1.0" encoding="UTF-8" standalone="no"?>
<!-- Created with Inkscape (http://www.inkscape.org/) -->

<svg
   xmlns:dc="http://purl.org/dc/elements/1.1/"
   xmlns:cc="http://creativecommons.org/ns#"
   xmlns:rdf="http://www.w3.org/1999/02/22-rdf-syntax-ns#"
   xmlns:svg="http://www.w3.org/2000/svg"
   xmlns="http://www.w3.org/2000/svg"
   xmlns:sodipodi="http://sodipodi.sourceforge.net/DTD/sodipodi-0.dtd"
   xmlns:inkscape="http://www.inkscape.org/namespaces/inkscape"
   width="133.29167mm"
   height="54.067459mm"
   viewBox="0 0 133.29167 54.067459"
   version="1.1"
   id="svg18369"
   inkscape:version="0.92.3 (2405546, 2018-03-11)"
   sodipodi:docname="boxes.svg">
  <defs
     id="defs18363" />
  <sodipodi:namedview
     id="base"
     pagecolor="#ffffff"
     bordercolor="#666666"
     borderopacity="1.0"
     inkscape:pageopacity="0.0"
     inkscape:pageshadow="2"
     inkscape:zoom="0.98994949"
     inkscape:cx="92.147577"
     inkscape:cy="265.03667"
     inkscape:document-units="mm"
     inkscape:current-layer="layer1"
     showgrid="false"
     inkscape:window-width="1920"
     inkscape:window-height="976"
     inkscape:window-x="-8"
     inkscape:window-y="73"
     inkscape:window-maximized="1" />
  <metadata
     id="metadata18366">
    <rdf:RDF>
      <cc:Work
         rdf:about="">
        <dc:format>image/svg+xml</dc:format>
        <dc:type
           rdf:resource="http://purl.org/dc/dcmitype/StillImage" />
        <dc:title></dc:title>
      </cc:Work>
    </rdf:RDF>
  </metadata>
  <g
     inkscape:label="Layer 1"
     inkscape:groupmode="layer"
     id="layer1"
     transform="translate(-16.130953,-226.09317)">
    <rect
       style="fill:none;fill-opacity:1;stroke:#0e0100;stroke-width:1;stroke-miterlimit:4;stroke-dasharray:none;stroke-opacity:1"
       id="rect18371"
       width="132.29167"
       height="52.916668"
       x="16.630953"
       y="226.69643" />
    <path
       style="fill:none;stroke:#000000;stroke-width:0.26730308px;stroke-linecap:butt;stroke-linejoin:miter;stroke-opacity:1"
       d="m 56.851442,226.0946 -0.564245,52.91373"
       id="path18916"
       inkscape:connector-curvature="0" />
    <path
       style="fill:none;stroke:#000000;stroke-width:0.26730311px;stroke-linecap:butt;stroke-linejoin:miter;stroke-opacity:1"
       d="m 103.83833,227.24548 -0.56425,52.91373"
       id="path18916-8"
       inkscape:connector-curvature="0" />
  </g>
</svg>
